<?xml version="1.0" encoding="utf-8"?>
<!-- Generator: Adobe Illustrator 16.0.4, SVG Export Plug-In . SVG Version: 6.00 Build 0)  -->
<!DOCTYPE svg PUBLIC "-//W3C//DTD SVG 1.1//EN" "http://www.w3.org/Graphics/SVG/1.1/DTD/svg11.dtd">
<svg version="1.1" id="Layer_1" xmlns="http://www.w3.org/2000/svg" xmlns:xlink="http://www.w3.org/1999/xlink" x="0px" y="0px"
	 width="1200px" height="650px" viewBox="0 275 1200 650" enable-background="new 0 275 1200 650" xml:space="preserve">
<g>
	<g>
		<g>
			<g>
				<g>
					<path fill="#6C6C6B" d="M673.561,389.343c0-1.354-0.542-2.98-1.626-4.064c-1.083-1.083-2.709-1.625-4.062-1.625H504.764
						c-1.354,0-2.979,0.542-4.062,1.625c-1.084,1.084-1.626,2.709-1.626,4.064v15.715h174.758L673.561,389.343L673.561,389.343z"/>
					<path fill="#6C6C6B" d="M579.814,425.649c0-2.98-1.083-5.69-3.251-7.857c-2.167-2.167-5.147-3.251-7.857-3.251h-69.902v15.172
						c0,1.355,0.542,2.98,1.625,4.064c1.084,1.084,2.71,1.626,4.064,1.626h49.582c1.354,0,2.979,0.542,4.063,1.625
						c1.084,1.084,1.626,2.438,1.626,4.063l0.541,121.652l-120.298-152.54c-1.625-2.167-2.438-4.877-2.438-7.586
						c0.271-2.98,1.354-5.419,3.252-7.315l72.611-75.864c2.168-2.167,4.605-4.064,7.587-5.418c2.979-1.355,5.961-1.897,9.212-1.897
						h115.963c2.168,0,4.605,0.542,6.772,1.355c2.168,0.812,4.064,2.167,5.69,3.793l75.051,77.218
						c1.896,1.896,2.98,4.605,3.251,7.315c0.271,2.98-0.812,5.69-2.438,7.586L613.141,563.017l0,0V441.093
						c0-1.354,0.542-2.979,1.626-4.063c1.084-1.083,2.438-1.625,4.064-1.625h49.04c1.354,0,2.979-0.542,4.063-1.626
						c1.083-1.084,1.625-2.709,1.625-4.064v-15.172h-69.632c-2.979,0-5.688,1.084-7.856,3.251c-2.167,2.167-3.251,5.147-3.251,7.857
						v9.754l0,0v102.958h0.271v70.985c0,2.438,1.626,4.605,3.794,5.419c2.438,0.812,4.877,0,6.502-1.896l163.648-203.478
						c1.626-2.167,2.71-4.877,2.439-7.586c-0.271-2.98-1.355-5.418-3.253-7.315L667.6,290.178c-1.625-1.625-3.521-2.979-5.688-4.063
						c-2.168-0.813-4.606-1.354-6.773-1.354H518.854c-2.168,0-4.605,0.542-6.773,1.354c-2.167,1.084-4.063,2.438-5.689,4.063
						L407.768,394.49c-1.896,1.896-2.979,4.605-3.251,7.315c-0.271,2.98,0.812,5.69,2.438,7.586l162.563,202.936
						c1.355,1.896,4.064,2.709,6.503,1.896c2.439-0.812,3.794-2.979,3.794-5.419V538.36L579.814,425.649L579.814,425.649z"/>
				</g>
			</g>
		</g>
		<g>
			<g>
				<path fill="#6C6C6B" d="M121.924,650.53v26.28H86.159v91.309H57.71v-91.309H22.488v-26.28H121.924z"/>
				<path fill="#6C6C6B" d="M235.448,650.53v65.297c0,35.223-20.862,54.729-52.021,54.729c-31.158,0-52.021-19.235-52.021-54.729
					V650.53h28.449v64.755c0,20.05,8.128,28.991,23.572,28.991c15.444,0,23.572-8.67,23.572-28.991V650.53H235.448z"/>
				<path fill="#6C6C6B" d="M276.631,676.812v23.029h43.08v25.469h-43.08v42.81h-28.178V650.53h83.721v26.28h-55.543V676.812z"/>
				<path fill="#6C6C6B" d="M428.358,741.838v26.281h-86.432V650.53h85.618v26.28h-57.169v19.237h44.977v24.655h-44.977v20.863
					h57.981L428.358,741.838L428.358,741.838z"/>
				<path fill="#6C6C6B" d="M513.163,768.119l-35.493-48.771l-10.025,10.025v39.016h-28.178V650.802h28.178v19.236
					c0,19.508-0.541,25.198-0.271,25.198h0.271c0.271,0,3.522-4.064,15.444-15.986l28.448-28.448h34.681l-49.853,50.124
					l50.124,67.465h-33.326V768.119z"/>
				<path fill="#6C6C6B" d="M622.624,686.837c-5.419-6.772-15.444-10.838-24.656-10.838c-19.508,0-31.7,13.818-31.7,33.326
					c0,20.319,13.276,33.055,31.7,33.055c11.38,0,21.946-5.688,26.823-13.818l28.449,7.315
					c-9.754,20.862-30.889,34.681-55.543,34.681c-33.868,0-60.962-25.738-60.962-61.231s27.094-61.233,60.962-61.233
					c23.301,0,43.079,12.464,53.375,31.158L622.624,686.837z"/>
				<path fill="#6C6C6B" d="M660.826,768.119v-112.44h28.178v112.44H660.826z"/>
				<path fill="#6C6C6B" d="M759.178,648.092c33.868,0,61.233,25.74,61.233,61.233s-27.365,61.231-61.233,61.231
					c-33.867,0-60.961-25.738-60.961-61.231S725.581,648.092,759.178,648.092z M759.178,742.65
					c19.237,0,31.701-13.547,31.701-33.325c0-19.779-12.734-33.326-31.701-33.326c-18.966,0-31.699,13.547-31.699,33.326
					C727.749,729.104,740.212,742.65,759.178,742.65z"/>
				<path fill="#6C6C6B" d="M919.305,758.637c-6.772,7.315-20.319,11.921-31.971,11.921c-33.868,0-60.963-25.738-60.963-61.231
					s27.095-61.233,60.963-61.233c22.759,0,42.809,12.192,53.375,31.158l-28.72,7.587C906.57,680.065,896.545,676,887.334,676
					c-19.508,0-31.701,13.818-31.701,33.326c0,20.591,13.818,33.597,33.326,33.597c18.695,0,27.094-9.754,30.346-18.424v-0.271
					h-30.888v-22.759h55.001v66.651h-24.113C919.305,760.262,919.305,758.637,919.305,758.637L919.305,758.637z"/>
				<path fill="#6C6C6B" d="M1042.041,741.838v26.281H958.32V650.53h28.178v91.308H1042.041L1042.041,741.838z"/>
				<path fill="#6C6C6B" d="M1150.96,650.53v65.297c0,35.223-20.863,54.729-52.021,54.729c-31.158,0-52.021-19.235-52.021-54.729
					V650.53h28.178v64.755c0,20.05,8.129,28.991,23.572,28.991s23.572-8.67,23.572-28.991V650.53H1150.96z"/>
			</g>
			<rect x="159.584" y="622.624" fill="#6C6C6B" width="20.05" height="20.049"/>
			<rect x="186.95" y="622.624" fill="#6C6C6B" width="20.05" height="20.049"/>
			<rect x="660.556" y="622.624" fill="#6C6C6B" width="28.179" height="20.049"/>
			<rect x="584.15" y="775.164" fill="#6C6C6B" width="28.178" height="20.049"/>
			<rect x="865.116" y="622.624" fill="#6C6C6B" width="46.06" height="20.049"/>
		</g>
		<g>
			<path fill="#6C6C6B" d="M1174.803,665.703c-1.896,1.896-4.063,2.71-6.503,2.71c-2.709,0-4.877-0.813-6.503-2.71
				c-1.896-1.625-2.709-4.063-2.709-6.502c0-2.71,0.812-4.877,2.709-6.503c1.896-1.896,4.064-2.71,6.503-2.71
				c2.71,0,4.877,0.812,6.503,2.71c1.896,1.896,2.709,4.063,2.709,6.503C1177.512,661.91,1176.428,664.078,1174.803,665.703z
				 M1173.719,653.511c-1.354-1.625-3.251-2.167-5.688-2.167c-2.168,0-4.064,0.812-5.69,2.167c-1.354,1.626-2.167,3.522-2.167,5.69
				c0,2.167,0.812,4.062,2.167,5.688c1.626,1.626,3.252,2.167,5.69,2.167c2.167,0,4.062-0.812,5.688-2.167
				c1.626-1.626,2.168-3.521,2.168-5.688C1175.887,657.033,1175.344,655.137,1173.719,653.511z M1171.28,664.619l-2.98-4.877h-2.167
				v4.877h-1.354v-10.837h4.063c2.438,0,3.522,1.083,3.522,2.979c0,1.625-0.813,2.709-2.71,2.979l3.252,4.877L1171.28,664.619
				L1171.28,664.619z M1168.57,654.865h-2.438v3.794h1.625c1.084,0,1.896,0,2.168-0.271c0.542-0.271,1.083-0.812,1.083-1.626
				C1171.01,655.679,1170.196,654.865,1168.57,654.865z"/>
		</g>
	</g>
	<g>
		<path fill="#6C6C6B" d="M239.241,848.859h3.251v31.158l33.868-31.158h4.335l-24.656,22.487l26.282,31.431h-4.064l-24.385-29.263
			l-11.108,10.296v18.967h-3.251L239.241,848.859L239.241,848.859z"/>
		<path fill="#6C6C6B" d="M307.789,848.859h3.521l21.404,53.918h-3.521l-6.774-17.342h-25.739l-6.774,17.342h-3.522L307.789,848.859
			z M321.337,882.729l-11.649-30.616h-0.271l-11.921,30.616H321.337z"/>
		<path fill="#6C6C6B" d="M345.18,848.859v32.514c0,1.084,0,2.167,0.271,3.793c0,1.354,0.271,2.98,0.812,4.335
			c0.271,1.354,1.083,2.98,1.625,4.335c0.813,1.354,1.626,2.71,2.98,3.793c1.354,1.084,2.71,2.168,4.605,2.71
			c1.896,0.542,4.063,1.084,6.773,1.084c3.251,0,6.23-0.542,8.398-1.354s4.063-2.167,5.418-4.063
			c1.355-1.626,2.439-3.793,2.98-6.231c0.542-2.438,0.813-5.147,0.813-8.398v-32.514h3.251v32.514c0,3.251-0.271,6.231-1.084,8.94
			c-0.812,2.71-1.896,5.147-3.521,7.314c-1.626,2.168-3.794,3.794-6.503,4.877c-2.71,1.084-5.961,1.896-10.025,1.896
			c-3.251,0-5.96-0.271-8.128-1.083c-2.167-0.813-4.063-1.896-5.688-3.252c-1.354-1.354-2.71-2.709-3.522-4.335
			c-0.812-1.625-1.626-3.251-1.896-5.147c-0.542-1.626-0.812-3.251-0.812-4.877s-0.271-2.979-0.271-4.063v-32.514L345.18,848.859
			L345.18,848.859z"/>
		<path fill="#6C6C6B" d="M440.822,865.116c-0.271-2.167-1.084-4.335-2.168-5.961c-1.084-1.896-2.438-3.251-4.064-4.605
			c-1.625-1.354-3.521-2.168-5.688-2.979c-2.168-0.542-4.064-1.084-6.503-1.084c-3.521,0-6.773,0.812-9.482,2.168
			c-2.71,1.354-5.148,3.251-7.045,5.419c-1.896,2.167-3.251,4.877-4.335,8.128c-1.084,2.979-1.626,6.23-1.626,9.754
			s0.542,6.773,1.626,9.754c1.084,2.981,2.438,5.689,4.335,8.128c1.896,2.168,4.335,4.064,7.045,5.419
			c2.709,1.354,5.961,2.168,9.482,2.168c2.71,0,5.147-0.542,7.314-1.626c2.168-1.084,4.336-2.438,5.961-4.335
			c1.626-1.896,2.98-3.793,4.064-6.23c1.084-2.438,1.625-4.877,1.896-7.315h3.251c-0.271,3.251-1.084,6.231-2.438,8.94
			c-1.354,2.71-2.98,5.147-4.877,7.045c-1.897,1.896-4.335,3.521-7.044,4.604c-2.71,1.084-5.419,1.626-8.399,1.626l0,0l-2.438,2.98
			l0,0c0.812-0.271,1.896-0.542,2.979-0.542c1.626,0,2.98,0.542,4.063,1.354c1.084,0.813,1.626,2.168,1.626,3.794
			c0,1.896-0.812,3.521-2.167,4.605c-1.355,1.084-3.252,1.354-5.419,1.354c-1.354,0-2.71-0.271-3.794-0.542
			c-1.084-0.271-2.168-0.812-2.979-1.354l0.812-1.896c0.812,0.542,1.896,0.813,2.709,1.084c1.085,0.271,2.169,0.542,3.253,0.542
			c1.354,0,2.438-0.271,3.251-1.084c0.812-0.542,1.354-1.626,1.354-2.709c0-1.084-0.271-1.626-1.083-2.438
			c-0.812-0.542-1.626-0.813-2.71-0.813c-0.812,0-1.354,0-1.896,0.271c-0.542,0.271-1.084,0.271-1.626,0.542l-1.084-1.084
			l3.252-4.335c-3.793-0.271-7.045-1.355-9.754-2.71c-2.98-1.625-5.42-3.522-7.315-6.231c-1.896-2.438-3.522-5.419-4.606-8.67
			c-1.084-3.252-1.625-6.772-1.625-10.565c0-4.064,0.541-7.588,1.625-11.109s2.71-6.502,5.148-8.94
			c2.167-2.438,4.877-4.605,8.128-5.961c3.251-1.354,6.773-2.168,10.838-2.168c3.251,0,5.96,0.542,8.128,1.355
			c2.438,0.812,4.335,1.896,5.961,2.979c1.625,1.355,2.98,2.71,3.793,4.064c0.813,1.354,1.896,2.71,2.438,4.063
			c0.542,1.354,0.812,2.438,1.084,3.251c0.271,0.812,0.271,1.354,0.271,1.626L440.822,865.116L440.822,865.116z"/>
		<path fill="#6C6C6B" d="M461.413,848.859v32.514c0,1.084,0,2.167,0.271,3.793c0,1.354,0.271,2.98,0.812,4.335
			c0.271,1.354,1.084,2.98,1.626,4.335c0.812,1.354,1.625,2.71,2.979,3.793c1.354,1.084,2.709,2.168,4.605,2.71
			c1.896,0.812,4.064,1.084,6.773,1.084c3.252,0,6.231-0.542,8.398-1.354c2.168-0.812,4.064-2.167,5.419-4.063
			c1.354-1.626,2.438-3.793,2.98-6.231s0.812-5.147,0.812-8.398v-32.514h3.252v32.514c0,3.251-0.271,6.231-1.084,8.94
			c-0.812,2.71-1.896,5.147-3.521,7.314c-1.626,2.168-3.793,3.794-6.503,4.877c-2.709,1.084-5.96,1.896-10.024,1.896
			c-3.251,0-5.961-0.271-8.128-1.083c-2.168-0.813-4.063-1.896-5.69-3.252c-1.354-1.354-2.709-2.709-3.521-4.335
			c-0.812-1.625-1.625-3.251-1.896-5.147c-0.541-1.626-0.812-3.251-0.812-4.877s-0.271-2.979-0.271-4.063v-32.514L461.413,848.859
			L461.413,848.859z"/>
		<path fill="#6C6C6B" d="M514.789,848.859h3.251v31.158l33.868-31.158h4.335l-24.656,22.487l26.281,31.431h-4.063l-24.385-29.263
			l-11.107,10.296v18.967h-3.522L514.789,848.859L514.789,848.859z"/>
		<path fill="#6C6C6B" d="M592.82,890.043c0-2.168,0.542-4.064,1.354-5.961c0.812-1.625,1.896-3.251,3.251-4.335
			c1.355-1.354,2.98-2.438,4.606-3.522s3.251-2.167,4.877-2.979c-0.813-1.083-1.626-2.167-2.438-3.251
			c-0.812-1.084-1.626-2.167-2.438-3.251c-0.813-1.084-1.354-2.438-1.626-3.522c-0.542-1.354-0.812-2.71-0.812-4.063
			c0-1.354,0.271-2.709,1.084-3.793c0.541-1.084,1.625-2.167,2.438-2.98c1.083-0.812,2.167-1.354,3.521-1.896
			c1.355-0.542,2.71-0.812,4.064-0.812c1.354,0,2.979,0.271,4.335,0.542c1.354,0.271,2.438,1.083,3.521,1.896
			c1.084,0.812,1.896,1.625,2.438,2.979c0.542,1.083,0.812,2.438,0.812,4.063c0,1.896-0.271,3.521-1.084,4.877
			c-0.812,1.354-1.625,2.71-2.709,3.794c-1.084,1.083-2.168,2.167-3.521,2.979c-1.354,0.813-2.709,1.897-4.063,2.711l12.733,15.715
			c0.542-1.355,1.084-2.98,1.354-4.336c0.271-1.625,0.543-2.979,0.543-4.605h2.979c0,1.896-0.271,3.793-0.813,5.961
			c-0.541,1.896-1.084,3.793-1.896,5.689l8.67,10.838h-3.793l-6.503-8.129c-1.625,2.71-3.793,4.877-6.502,6.503
			c-2.71,1.626-5.69,2.438-8.941,2.438c-2.168,0-4.335-0.271-6.23-0.812c-1.896-0.541-3.522-1.354-5.148-2.438
			c-1.354-1.084-2.438-2.438-3.521-4.335C593.362,894.378,592.82,892.211,592.82,890.043z M595.801,890.043
			c0,1.896,0.271,3.251,1.083,4.877c0.813,1.354,1.626,2.709,2.98,3.522c1.354,1.083,2.71,1.625,4.063,2.167
			c1.626,0.542,3.251,0.812,4.877,0.812c2.167,0,4.335-0.542,5.961-1.354c1.625-0.812,2.98-1.896,4.336-2.979
			c1.084-1.084,1.896-2.168,2.438-2.979c0.542-0.813,0.812-1.355,0.812-1.626l-13.818-17.342c-1.354,0.813-2.979,1.897-4.335,2.711
			c-1.354,0.812-2.98,1.896-4.063,3.25c-1.354,1.084-2.168,2.438-2.979,3.794C596.071,886.521,595.801,888.146,595.801,890.043z
			 M609.348,871.619c1.084-0.813,2.167-1.355,3.522-2.438c1.083-0.812,2.167-1.626,3.251-2.71c1.084-1.083,1.896-2.167,2.438-3.521
			c0.542-1.355,0.812-2.71,0.812-4.064c0-1.084-0.271-1.896-0.812-2.71c-0.542-0.812-1.084-1.625-1.896-2.167
			c-0.813-0.542-1.626-1.084-2.71-1.354c-1.083-0.271-2.167-0.542-2.98-0.542c-0.812,0-2.167,0.271-2.979,0.542
			c-0.813,0.271-1.897,0.812-2.71,1.354c-0.813,0.542-1.354,1.354-1.896,2.167c-0.542,0.813-0.812,1.626-0.812,2.71
			c0,1.354,0.271,2.438,0.812,3.793c0.542,1.084,1.084,2.168,1.896,3.251c0.812,1.084,1.354,1.897,2.168,2.98
			C608.264,869.993,608.806,870.806,609.348,871.619z"/>
		<path fill="#6C6C6B" d="M672.477,848.859h4.877l21.135,50.396h0.271l20.863-50.396h4.877v53.918h-3.794v-49.854l0,0
			l-20.591,49.854h-3.252L676,852.923h-0.271v49.854h-3.252V848.859L672.477,848.859z"/>
		<path fill="#6C6C6B" d="M755.656,848.859h3.521l21.404,53.918h-3.521l-6.773-17.342h-25.74l-6.773,17.342h-3.521L755.656,848.859z
			 M769.203,882.729l-11.65-30.616h-0.271l-11.921,30.616H769.203z"/>
		<path fill="#6C6C6B" d="M790.607,848.859h3.25v31.158l33.868-31.158h4.335l-24.654,22.487l26.281,31.431h-4.064l-24.385-29.263
			l-11.108,10.296v18.967h-3.252v-53.918H790.607z"/>
		<path fill="#6C6C6B" d="M842.898,842.899v-7.857h3.252v7.857H842.898z M842.898,848.859h3.252v53.918h-3.252V848.859z"/>
		<path fill="#6C6C6B" d="M861.865,848.859h4.063l34.139,49.583h0.271v-49.583h3.251v53.918h-4.063l-34.409-49.854h-0.271v49.854
			h-3.252v-53.918H861.865z"/>
		<path fill="#6C6C6B" d="M935.29,848.859h3.522l21.403,53.918h-3.521l-6.773-17.342H923.91l-6.773,17.342h-3.521L935.29,848.859z
			 M948.837,882.729l-11.649-30.616h-0.271l-11.922,30.616H948.837z"/>
	</g>
</g>
</svg>
